…
Create dummy variable weighting the points assigned to each to contestant outcome by the number of episodes they appear in:

points_rpdr_contep <- points_rpdr_contep %>% 
  mutate(w_ep_point = (ep_point/n_contest_ep), .after = ep_point)

Create table with each contestants total weighted points, arrange in desending order

scores <- points_rpdr_contep %>% 
  group_by(contestant) %>% 
  summarise(total_score = sum(w_ep_point)) %>% 
  arrange(desc(total_score))

scores

## # A tibble: 152 x 2
##    contestant         total_score
##    <chr>                    <dbl>
##  1 Bianca Del Rio            4.92
##  2 Bob the Drag Queen        4.90
##  3 BeBe Zahara Benet         4.71
##  4 Tyra Sanchez              4.7 
##  5 Nina Flowers              4.57
##  6 Jinkx Monsoon             4.5 
##  7 Sasha Velour              4.5 
##  8 Sharon Needles            4.5 
##  9 Violet Chachki            4.46
## 10 Raja                      4.38
## # ... with 142 more rows
…
